Predicting Need for Phototherapy in the Neonatal ICU
…
Variable type: integer 
   variable missing complete    n     mean      sd p0    p25  median
 subject_id       0     7246 7246 15630.23 9148.89  2 7743.5 15437.5
      p75  p100
 23197.25 32806

photo_babies_complete <- na.omit(photo_babies_tidy)

3.4 Tidied Tibble

Our tibble photo_babies_complete contains 2779 rows (patients) and 11 columns (variables). Each variable is contained in a column, and each row represents a single subject. All variables now have appropriate types.

photo_babies_complete

# A tibble: 2,779 x 11
   subject_id sepsis birth_weight_fac   ABO   hemolytic phototherapy HIE  
        <int> <fct>  <fct>              <fct> <fct>     <fct>        <fct>
 1         10 0      Very Low Birth We 0     0         1            0    
 2         66 0      Normal Birth Weig 0     0         0            0    
 3         69 0      Low Birth Weight  0     0         1            0    
 4         72 0      Normal Birth Weig 0     0         1            0    
 5         82 0      Normal Birth Weig 0     0         0            0    
 6         87 0      Very Low Birth We 0     0         1            0    
 7         89 0      Low Birth Weight  0     0         1            0    
 8         93 1      Extremely Low Bir 0     0         1            0    
 9        102 0      Low Birth Weight  0     0         1            0    
10        104 0      Low Birth Weight  0     0         1            0    
# ... with 2,769 more rows, and 4 more variables: jaundice <fct>,
#   acidosis <fct>, ethnicity_fac <fct>, gestational_age_fac <fct>
…
